…
```
# A tibble: 201,318 x 6
    year evtype       fatalities injuries propdmg cropdmg
   <int> <chr>             <dbl>    <dbl>   <dbl>   <dbl>
 1  1996 WINTER STORM          0        0  380000   38000
 2  1996 TORNADO               0        0  100000       0
 3  1996 TSTM WIND             0        0    3000       0
 4  1996 TSTM WIND             0        0    5000       0
 5  1996 TSTM WIND             0        0    2000       0
 6  1996 HIGH WIND             0        0  400000       0
 7  1996 TSTM WIND             0        0   12000       0
 8  1996 TSTM WIND             0        0    8000       0
 9  1996 TSTM WIND             0        0   12000       0
10  1996 FLASH FLOOD           0        0   75000       0
# ... with 201,308 more rows
```
…
